…
accel_df
```

    ## # A tibble: 50,400 × 6
    ##     week day_id day    minute activity_counts weekday
    ##    <dbl>  <dbl> <fct>   <dbl>           <dbl> <lgl>  
    ##  1     1      1 Friday      1            88.4 TRUE   
    ##  2     1      1 Friday      2            82.2 TRUE   
    ##  3     1      1 Friday      3            64.4 TRUE   
    ##  4     1      1 Friday      4            70.0 TRUE   
    ##  5     1      1 Friday      5            75.0 TRUE   
    ##  6     1      1 Friday      6            66.3 TRUE   
    ##  7     1      1 Friday      7            53.8 TRUE   
    ##  8     1      1 Friday      8            47.8 TRUE   
    ##  9     1      1 Friday      9            55.5 TRUE   
    ## 10     1      1 Friday     10            43.0 TRUE   
    ## # … with 50,390 more rows
…
